<cruisecontrol project="C:\Sridhar\ANG Project\Continuous Integration\DemoWebApp\DemoWebApp">
  <request source="continuous" buildCondition="IfModificationExists">Build (IfModificationExists) triggered from continuous</request>
  <parameters>
    <parameter name="$CCNetArtifactDirectory" value="C:\Sridhar\ANG Project\Continuous Integration\DemoWebApp\DemoWebApp\Artifacts" />
    <parameter name="$CCNetBuildCondition" value="IfModificationExists" />
    <parameter name="$CCNetBuildDate" value="2013-03-04" />
    <parameter name="$CCNetBuildId" value="b3ce936816684a46a46aacb8f658c708" />
    <parameter name="$CCNetBuildTime" value="13:43:19" />
    <parameter name="$CCNetFailureTasks" value="System.Collections.ArrayList" />
    <parameter name="$CCNetFailureUsers" value="System.Collections.ArrayList" />
    <parameter name="$CCNetIntegrationStatus" value="Unknown" />
    <parameter name="$CCNetLabel" value="1" />
    <parameter name="$CCNetLastIntegrationStatus" value="Failure" />
    <parameter name="$CCNetListenerFile" value="C:\Sridhar\ANG Project\Continuous Integration\DemoWebApp\DemoWebApp\Artifacts\CSridharANG ProjectContinuous IntegrationDemoWebAppDemoWebApp_ListenFile.xml" />
    <parameter name="$CCNetModifyingUsers" value="System.Collections.ArrayList" />
    <parameter name="$CCNetNumericLabel" value="1" />
    <parameter name="$CCNetProject" value="C:\Sridhar\ANG Project\Continuous Integration\DemoWebApp\DemoWebApp" />
    <parameter name="$CCNetProjectUrl" value="http://OCTOLAPTOP/ccnet" />
    <parameter name="$CCNetRequestSource" value="continuous" />
    <parameter name="$CCNetUser" value="" />
    <parameter name="$CCNetWorkingDirectory" value="C:\Sridhar\ANG Project\Continuous Integration\DemoWebApp\DemoWebApp\WorkingDirectory" />
  </parameters>
  <modifications>
    <modification type="modified">
      <filename>AlwaysModified</filename>
      <project>NullSourceControl</project>
      <date>2013-03-04 13:43:19</date>
      <user>John "The Duke" Wayne</user>
      <comment>Making a change</comment>
      <changeNumber />
    </modification>
  </modifications>
  <integrationProperties>
    <CCNetArtifactDirectory>C:\Sridhar\ANG Project\Continuous Integration\DemoWebApp\DemoWebApp\Artifacts</CCNetArtifactDirectory>
    <CCNetBuildCondition>IfModificationExists</CCNetBuildCondition>
    <CCNetBuildDate>2013-03-04</CCNetBuildDate>
    <CCNetBuildTime>13:43:19</CCNetBuildTime>
    <CCNetFailureUsers>
      <user>John "The Duke" Wayne</user>
    </CCNetFailureUsers>
    <CCNetFailureTasks>
      <task>NAntTask</task>
    </CCNetFailureTasks>
    <CCNetIntegrationStatus>Failure</CCNetIntegrationStatus>
    <CCNetLabel>1</CCNetLabel>
    <CCNetLastIntegrationStatus>Failure</CCNetLastIntegrationStatus>
    <CCNetListenerFile>C:\Sridhar\ANG Project\Continuous Integration\DemoWebApp\DemoWebApp\Artifacts\CSridharANG ProjectContinuous IntegrationDemoWebAppDemoWebApp_ListenFile.xml</CCNetListenerFile>
    <CCNetModifyingUsers>
      <user>John "The Duke" Wayne</user>
    </CCNetModifyingUsers>
    <CCNetNumericLabel>1</CCNetNumericLabel>
    <CCNetProject>C:\Sridhar\ANG Project\Continuous Integration\DemoWebApp\DemoWebApp</CCNetProject>
    <CCNetProjectUrl>http://OCTOLAPTOP/ccnet</CCNetProjectUrl>
    <CCNetRequestSource>continuous</CCNetRequestSource>
    <CCNetWorkingDirectory>C:\Sridhar\ANG Project\Continuous Integration\DemoWebApp\DemoWebApp\WorkingDirectory</CCNetWorkingDirectory>
    <CCNetBuildId>b3ce936816684a46a46aacb8f658c708</CCNetBuildId>
    <LastIntegrationStatus>Failure</LastIntegrationStatus>
    <LastSuccessfulIntegrationLabel>UNKNOWN</LastSuccessfulIntegrationLabel>
    <LastModificationDate>3/4/2013 1:43:19 PM</LastModificationDate>
  </integrationProperties>
  <build date="2013-03-04 13:43:19" buildtime="00:00:00" error="true" buildcondition="IfModificationExists"><buildresults project="DemoWebApp">
  <message level="Info"><![CDATA[Buildfile: file:///C:/Sridhar/ANG Project/Continuous Integration/DemoWebApp/DemoWebApp/default.build]]></message>
  <message level="Info"><![CDATA[Target framework: Microsoft .NET Framework 4.0]]></message>
  <message level="Info"><![CDATA[Target(s) specified: start]]></message>
  <task name="property">
    <duration>0</duration>
  </task>
  <task name="property">
    <duration>0</duration>
  </task>
  <failure>
    <builderror>
      <type>NAnt.Core.BuildException</type>
      <message><![CDATA[Target 'start' does not exist in this project.]]></message>
      <stacktrace><![CDATA[   at NAnt.Core.Project.TopologicalTargetSort(String root, TargetCollection targets, Hashtable state, Stack visiting, TargetCollection executeTargets)
   at NAnt.Core.Project.TopologicalTargetSort(String root, TargetCollection targets)
   at NAnt.Core.Project.Execute(String targetName, Boolean forceDependencies)
   at NAnt.Core.Project.Execute()
   at NAnt.Core.Project.Run()]]></stacktrace>
    </builderror>
  </failure>
  <duration>46.8001</duration>
</buildresults>Buildfile: file:///C:/Sridhar/ANG Project/Continuous Integration/DemoWebApp/DemoWebApp/default.build
Target framework: Microsoft .NET Framework 4.0
Target(s) specified: start 


BUILD FAILED

Target 'start' does not exist in this project.

Total time: 0 seconds.

</build>
</cruisecontrol>